{
    "id": 4052055,
    "@id": "http://schema.org/Review",
    "name": "Review",
    "title": "Review",
    "description": "A review of an item - for example, of a restaurant, movie, or store.",
    "hidden": true,
    "sealed": false,
    "inherits": "CreativeWork",
    "version": "1.1",
    "fields": [
        {
            "name": "id",
            "title": "ID",
            "description": "The identifier of the item.",
            "type": "Integer",
            "nullable": false,
            "primary": true
        },
        {
            "@id": "http://schema.org/reviewRating",
            "name": "reviewRating",
            "title": "Review Rating",
            "description": "The rating given in this review. Note that reviews can themselves be rated. The <code>reviewRating</code> applies to rating given by the review. The <a class=\"localLink\" href=\"/aggregateRating\">aggregateRating</a> property applies to the review itself, as a creative work.",
            "type": "Rating"
        },
        {
            "@id": "http://schema.org/itemReviewed",
            "name": "itemReviewed",
            "title": "Item Reviewed",
            "description": "The item that is being reviewed/rated.",
            "type": "Thing"
        },
        {
            "@id": "http://schema.org/reviewBody",
            "name": "reviewBody",
            "title": "Review Body",
            "description": "The actual body of the review.",
            "type": "Text"
        }
    ],
    "privileges": [
        {
            "mask": 15,
            "type": "global"
        }
    ]
}