[
    {
        "url": "/",
        "controller": "root",
        "action": "index"
    },
    {
        "url": "/api/?",
        "controller": "admin",
        "action": "index",
        "format": "json"
    },
    {
        "url": "/api/\\$metadata/?",
        "controller": "admin",
        "action": "metadata",
        "format": "xml"
    },
    {
        "url": "/api/:entitySet/?",
        "controller": "admin",
        "action": "items",
        "format": "json"
    },
    {
        "url": "/api/:entitySet/:id/?",
        "controller": "admin",
        "action": "item",
        "format": "json"
    },
    {
        "url": "/error",
        "controller": "root",
        "action": "error"
    },
    {
        "url": "/welcome",
        "controller": "root",
        "action": "welcome"
    },
    {
        "url": "/login",
        "controller": "root",
        "action": "login"
    },
    {
        "url": "/user",
        "controller": "root",
        "action": "user"
    },
    {
        "url": "/logout",
        "controller": "root",
        "action": "logout"
    },
    {
        "url": "/access_token",
        "controller": "auth",
        "action": "access_token"
    },
    {
        "url": "/tokeninfo",
        "controller": "auth",
        "action": "tokeninfo"
    },
    {
        "url": "/authorize",
        "controller": "auth",
        "action": "authorize"
    },
    {
        "url": "/me",
        "controller": "auth",
        "action": "me"
    }
]